%YAML 1.1
%TAG !u! tag:unity3d.com,2011:
--- !u!114 &11400000
MonoBehaviour:
  m_ObjectHideFlags: 0
  m_CorrespondingSourceObject: {fileID: 0}
  m_PrefabInstance: {fileID: 0}
  m_PrefabAsset: {fileID: 0}
  m_GameObject: {fileID: 0}
  m_Enabled: 1
  m_EditorHideFlags: 0
  m_Script: {fileID: 11500000, guid: 5ad40add42ecce646952aaa9475056c8, type: 3}
  m_Name: ObjectPool
  m_EditorClassIdentifier: 
  _name: Ship
  _template: {fileID: 7129369658715245534, guid: 3cc225a5bb6688a42b6e8f817ad98610, type: 3}
  _defaultSize: 150
  _maxSize: -1
  _incrementalInstanceNames: 0
  _autoInitialize: 1
  _repopulateOnSceneChange: 0
